Data Science-Ish: The Use of Mixed Effects (or Multi-Level) Models for Analyzing Complex Data Sources
…
# Accessing rail-trails data

- Use the `railtrails` R package
  - Install via `install.packages('railtrails')`)

```r
library(railtrails)
```

```r
railtrails
```

```
## # A tibble: 3,846 x 11
##    state name  distance surface category mean_review description n_reviews
##    <chr> <chr>    <dbl> <chr>   <chr>          <int> <chr>           <int>
##  1 AK    Chas…     14   Dirt, … Rail-Tr…           4 "Though cl…         1
##  2 AK    Tony…     11   Asphalt Rail-Tr…           5 "The Tony …         5
##  3 AK    Bird…     13   Asphalt Rail-Tr…           5 "The Bird …         3
##  4 AK    Camp…      7.5 Asphal… Greenwa…           5 "The Campb…         3
##  5 AK    Goos…      1.5 Asphal… Greenwa…           0 "The sceni…         0
##  6 AK    Home…      4   Asphalt Greenwa…           5 "On the so…         1
##  7 AK    Lani…      3.9 Asphal… Greenwa…           3 "The Lanie…         1
##  8 AK    Palm…      6.1 Gravel  Rail-Tr…           0 "As its na…         0
##  9 AK    Ship…      2.6 Asphalt Rail-Tr…           4 "Ship Cree…         1
## 10 AL    Chie…     33   Asphalt Rail-Tr…           5 "In northe…        77
## # … with 3,836 more rows, and 3 more variables: raw_reviews <list>,
## #   lat <dbl>, lng <dbl>
```
---

# Let's focus in on Tennessee

```r
library(dplyr)

d <- railtrails %>% 
  filter(state == "TN")

d
```

```
## # A tibble: 55 x 11
##    state name  distance surface category mean_review description n_reviews
##    <chr> <chr>    <dbl> <chr>   <chr>          <int> <chr>           <int>
##  1 TN    Tenn…     4.73 Asphal… Rail-Tr…           5 "The Tenne…         9
##  2 TN    Bets…     2    Asphalt Rail-Tr…           0 "The Betsy…         0
##  3 TN    Alta…     0.7  Asphal… Greenwa…           0 "Alta Lake…         0
##  4 TN    Bear…     2.7  Asphalt Greenwa…           0 "From Thir…         0
##  5 TN    Big …     1    Concre… Rail-Tr…           5 "Big River…         2
##  6 TN    Bria…     1.1  Asphalt Rail-Tr…           0 "The Brian…         0
##  7 TN    Broo…     0.4  Asphalt Greenwa…           3 "Brookmead…         5
##  8 TN    Cave…     0.95 Asphalt Greenwa…           0 "Cavet Sta…         0
##  9 TN    Chat…    13.1  Concre… Greenwa…           5 "The Chatt…        17
## 10 TN    Clar…     4.6  Asphalt Rail-Tr…           5 "The 4.6-m…        21
## # … with 45 more rows, and 3 more variables: raw_reviews <list>,
## #   lat <dbl>, lng <dbl>
```

---

# Let's 'unnest' the reviews

```r
d <- d %>% 
  unnest(raw_reviews) %>% 
  rename(raw_review = raw_reviews)

d
```

```
## # A tibble: 281 x 11
##    state name  distance surface category mean_review description n_reviews
##    <chr> <chr>    <dbl> <chr>   <chr>          <int> <chr>           <int>
##  1 TN    Tenn…     4.73 Asphal… Rail-Tr…           5 "The Tenne…         9
##  2 TN    Tenn…     4.73 Asphal… Rail-Tr…           5 "The Tenne…         9
##  3 TN    Tenn…     4.73 Asphal… Rail-Tr…           5 "The Tenne…         9
##  4 TN    Tenn…     4.73 Asphal… Rail-Tr…           5 "The Tenne…         9
##  5 TN    Tenn…     4.73 Asphal… Rail-Tr…           5 "The Tenne…         9
##  6 TN    Tenn…     4.73 Asphal… Rail-Tr…           5 "The Tenne…         9
##  7 TN    Tenn…     4.73 Asphal… Rail-Tr…           5 "The Tenne…         9
##  8 TN    Tenn…     4.73 Asphal… Rail-Tr…           5 "The Tenne…         9
##  9 TN    Tenn…     4.73 Asphal… Rail-Tr…           5 "The Tenne…         9
## 10 TN    Bets…     2    Asphalt Rail-Tr…           0 "The Betsy…         0
## # … with 271 more rows, and 3 more variables: lat <dbl>, lng <dbl>,
## #   raw_review <int>
```
…
```r
mean_reviews <- d %>% 
  group_by(name) %>% 
  summarize(mean_review = mean(raw_review, na.rm = TRUE),
            sd_review = sd(raw_review, na.rm = TRUE),
            n_reviews = n()) %>% 
  arrange(desc(mean_review))

mean_reviews
```

```
## # A tibble: 55 x 4
##    name                                     mean_review sd_review n_reviews
##    <chr>                                          <dbl>     <dbl>     <int>
##  1 Big River Crossing                              5        0             2
##  2 North Chicamauga Creek Greenway                 5       NA             1
##  3 Springfield Greenway                            5        0             8
##  4 White House Greenway                            5        0             3
##  5 Murfreesboro's Stones River Greenway Sy…        4.88     0.354        14
##  6 Wolf River Greenway                             4.86     0.378        10
##  7 Clarksville Greenway                            4.79     0.535        21
##  8 Shelby Farms Greenline                          4.75     0.452        16
##  9 Kingsport Greenbelt                             4.67     0.707        11
## 10 "Cumberland River Bicentennial Trail "          4.62     0.5          27
## # … with 45 more rows
```
…
