Data Science-Ish: The Use of Mixed Effects (or Multi-Level) Models for Analyzing Complex Data Sources
…
---

# Accessing rail-trails data

- Use the `railtrails` R package
- Install via `install.packages('railtrails')`)

```r
library(railtrails)

railtrails
```

```
## # A tibble: 3,846 x 11
##    state name  distance surface category mean_review description n_reviews
##    <chr> <chr>    <dbl> <chr>   <chr>          <int> <chr>           <int>
##  1 AK    Chas…     14   Dirt, … Rail-Tr…           4 "Though cl…         1
##  2 AK    Tony…     11   Asphalt Rail-Tr…           5 "The Tony …         5
##  3 AK    Bird…     13   Asphalt Rail-Tr…           5 "The Bird …         3
##  4 AK    Camp…      7.5 Asphal… Greenwa…           5 "The Campb…         3
##  5 AK    Goos…      1.5 Asphal… Greenwa…           0 "The sceni…         0
##  6 AK    Home…      4   Asphalt Greenwa…           5 "On the so…         1
##  7 AK    Lani…      3.9 Asphal… Greenwa…           3 "The Lanie…         1
##  8 AK    Palm…      6.1 Gravel  Rail-Tr…           0 "As its na…         0
##  9 AK    Ship…      2.6 Asphalt Rail-Tr…           4 "Ship Cree…         1
## 10 AL    Chie…     33   Asphalt Rail-Tr…           5 "In northe…        77
## # … with 3,836 more rows, and 3 more variables: raw_reviews <list>,
## #   lat <dbl>, lng <dbl>
```
---

# Let's focus in on Tennessee

```r
library(dplyr)

d <- railtrails %>% 
  filter(state == "TN")

d
```

```
## # A tibble: 55 x 11
##    state name  distance surface category mean_review description n_reviews
##    <chr> <chr>    <dbl> <chr>   <chr>          <int> <chr>           <int>
##  1 TN    Tenn…     4.73 Asphal… Rail-Tr…           5 "The Tenne…         9
##  2 TN    Bets…     2    Asphalt Rail-Tr…           0 "The Betsy…         0
##  3 TN    Alta…     0.7  Asphal… Greenwa…           0 "Alta Lake…         0
##  4 TN    Bear…     2.7  Asphalt Greenwa…           0 "From Thir…         0
##  5 TN    Big …     1    Concre… Rail-Tr…           5 "Big River…         2
##  6 TN    Bria…     1.1  Asphalt Rail-Tr…           0 "The Brian…         0
##  7 TN    Broo…     0.4  Asphalt Greenwa…           3 "Brookmead…         5
##  8 TN    Cave…     0.95 Asphalt Greenwa…           0 "Cavet Sta…         0
##  9 TN    Chat…    13.1  Concre… Greenwa…           5 "The Chatt…        17
## 10 TN    Clar…     4.6  Asphalt Rail-Tr…           5 "The 4.6-m…        21
## # … with 45 more rows, and 3 more variables: raw_reviews <list>,
## #   lat <dbl>, lng <dbl>
```
…
